{
  "info": {
    "_postman_id": "e4a42f44-a58f-4bfa-a5d0-5557a0a36247",
    "name": "Cars API",
    "schema": "https://schema.getpostman.com/json/collection/v2.1.0/collection.json"
  },
  "item": [
    {
      "name": "CRUD",
      "item": [
        {
          "name": "Get all cars",
          "event": [
            {
              "listen": "test",
              "script": {
                "id": "838290a6-f7c6-417d-a387-7df2d2c719f4",
                "exec": [
                  "pm.test(\"Status code is 200\", function () {",
                  "    pm.response.to.have.status(200);",
                  "});"
                ],
                "type": "text/javascript"
              }
            }
          ],
          "request": {
            "method": "GET",
            "header": [],
            "url": {
              "raw": "{{baseUrl}}/cars",
              "host": [
                "{{baseUrl}}"
              ],
              "path": [
                "cars"
              ]
            }
          },
          "response": []
        },
        {
          "name": "Add car",
          "request": {
            "method": "POST",
            "header": [
              {
                "key": "Content-Type",
                "name": "Content-Type",
                "value": "application/json",
                "type": "text"
              }
            ],
            "body": {
              "mode": "raw",
              "raw": "{\n    \"manufacturer\": \"Dacia\",\n    \"model\": \"Logan\",\n    \"build\": 2000\n}",
              "options": {
                "raw": {
                  "language": "json"
                }
              }
            },
            "url": {
              "raw": "{{baseUrl}}/cars",
              "host": [
                "{{baseUrl}}"
              ],
              "path": [
                "cars"
              ]
            }
          },
          "response": []
        },
        {
          "name": "Get single car",
          "event": [
            {
              "listen": "test",
              "script": {
                "id": "907cccdc-8da6-426d-9bef-2a618a44e8e2",
                "exec": [
                  "pm.test(\"Status code is 200\", function () {",
                  "    pm.response.to.have.status(200);",
                  "});"
                ],
                "type": "text/javascript"
              }
            }
          ],
          "request": {
            "method": "GET",
            "header": [],
            "url": {
              "raw": "{{baseUrl}}/cars/4",
              "host": [
                "{{baseUrl}}"
              ],
              "path": [
                "cars",
                "4"
              ]
            }
          },
          "response": []
        },
        {
          "name": "Delete car",
          "request": {
            "method": "DELETE",
            "header": [],
            "url": {
              "raw": "{{baseUrl}}/cars/1",
              "host": [
                "{{baseUrl}}"
              ],
              "path": [
                "cars",
                "1"
              ]
            }
          },
          "response": []
        }
      ],
      "protocolProfileBehavior": {}
    },
    {
      "name": "Statistics",
      "item": [
        {
          "name": "Average fleet age",
          "event": [
            {
              "listen": "test",
              "script": {
                "id": "79b19feb-1129-451d-8d19-f8a1a512e5dd",
                "exec": [
                  "pm.test(\"Status code is 200\", function () {",
                  "    pm.response.to.have.status(200);",
                  "});"
                ],
                "type": "text/javascript"
              }
            }
          ],
          "request": {
            "method": "GET",
            "header": [],
            "url": {
              "raw": "{{baseUrl}}/statistics/age",
              "host": [
                "{{baseUrl}}"
              ],
              "path": [
                "statistics",
                "age"
              ]
            }
          },
          "response": []
        }
      ],
      "protocolProfileBehavior": {}
    },
    {
      "name": "Health",
      "item": [
        {
          "name": "Health",
          "event": [
            {
              "listen": "test",
              "script": {
                "id": "1743a75d-932a-4e2d-b5d4-cf5b98c3c7f1",
                "exec": [
                  "pm.test(\"Status code is 200\", function () {",
                  "    pm.response.to.have.status(200);",
                  "});"
                ],
                "type": "text/javascript"
              }
            }
          ],
          "request": {
            "method": "GET",
            "header": [],
            "url": {
              "raw": "{{baseUrl}}/actuator/health",
              "host": [
                "{{baseUrl}}"
              ],
              "path": [
                "actuator",
                "health"
              ]
            }
          },
          "response": []
        },
        {
          "name": "Info",
          "event": [
            {
              "listen": "test",
              "script": {
                "id": "72e253db-70d1-4fce-9d7f-a3647081b16f",
                "exec": [
                  "pm.test(\"Status code is 200\", function () {",
                  "    pm.response.to.have.status(200);",
                  "});"
                ],
                "type": "text/javascript"
              }
            }
          ],
          "request": {
            "method": "GET",
            "header": [],
            "url": {
              "raw": "{{baseUrl}}/actuator/info",
              "host": [
                "{{baseUrl}}"
              ],
              "path": [
                "actuator",
                "info"
              ]
            }
          },
          "response": []
        }
      ],
      "protocolProfileBehavior": {}
    }
  ],
  "protocolProfileBehavior": {}
}
